…
What is special about using `README.Rmd` instead of just `README.md`?
You can include R chunks like so:

``` r
test <- readr::read_delim("demo/Fungi_noEnv.seq", delim = "\n", col_names = "AccIDs", col_types = readr::cols(AccIDs = readr::col_character()))
test
#> # A tibble: 620 x 1
#>    AccIDs    
#>    <chr>     
#>  1 LC601978.1
#>  2 MW559947.1
#>  3 CP048242.1
#>  4 CP048241.1
#>  5 CP048240.1
#>  6 CP048239.1
#>  7 CP048238.1
#>  8 CP048237.1
#>  9 CP048236.1
#> 10 CP048235.1
#> # ... with 610 more rows
```
…
